/* XPM */

static char *xpm_digit_9[] =
{
   /* width height ncolors chars_per_pixel */
   "20 30 2 1" ,
   /* colors */
   "- c red m white" ,
   "# c black" ,
   /* pixels */
   "####################" ,
   "####################" ,
   "###--------------###" ,
   "##-#------------#-##" ,
   "##--#----------#--##" ,
   "##---#--------#---##" ,
   "##----########----##" ,
   "##----########----##" ,
   "##----########----##" ,
   "##----########----##" ,
   "##----########----##" ,
   "##---##########---##" ,
   "##--#----------#--##" ,
   "##-#------------#-##" ,
   "###--------------###" ,
   "####------------#-##" ,
   "#####----------#--##" ,
   "###############---##" ,
   "##############----##" ,
   "##############----##" ,
   "##############----##" ,
   "##############----##" ,
   "##############----##" ,
   "##############----##" ,
   "######--------#---##" ,
   "#####----------#--##" ,
   "####------------#-##" ,
   "###--------------###" ,
   "####################" ,
   "####################" ,
} ;
