/* XPM */

static char *xpm_face_click[] =
{
   /* width height ncolors chars_per_pixel */
   "40 40 6 1" ,
   /* colors */
   "  c white" ,
   "# c black" ,
   "X c gray50 m black" ,
   "* c gray70 m black" ,
   ". c gray70 m white" ,
   "- c yellow m white" ,
   /* pixels */
   "XXXXXXXXXXXXXXXXXXXXXXXXXXXXXXXXXXXXXXXX" ,
   "XXXXXXXXXXXXXXXXXXXXXXXXXXXXXXXXXXXXXXX " ,
   "XXXXXXXXXXXXXXXXXXXXXXXXXXXXXXXXXXXXXX  " ,
   "XXX*.*.*.*.*.*.*.*.*.*.*.*.*.*.*.*.*.   " ,
   "XXX.*.*.*.*.*.*.*.*.*.*.*.*.*.*.*.*.*   " ,
   "XXX*.*.*.*.*.*.*########.*.*.*.*.*.*.   " ,
   "XXX.*.*.*.*.*###--------###.*.*.*.*.*   " ,
   "XXX*.*.*.*.##--------------##*.*.*.*.   " ,
   "XXX.*.*.*.#------------------#*.*.*.*   " ,
   "XXX*.*.*.#--------------------#*.*.*.   " ,
   "XXX.*.*.#----------------------#*.*.*   " ,
   "XXX*.*.#------------------------#*.*.   " ,
   "XXX.*.*#------------------------#.*.*   " ,
   "XXX*.*#-------##--------##-------#.*.   " ,
   "XXX.*.#------####------####------#*.*   " ,
   "XXX*.*#------####------####------#.*.   " ,
   "XXX.*#--------##--------##--------#.*   " ,
   "XXX*.#----------------------------#*.   " ,
   "XXX.*#----------------------------#.*   " ,
   "XXX*.#----------------------------#*.   " ,
   "XXX.*#----------------------------#.*   " ,
   "XXX*.#----------------------------#*.   " ,
   "XXX.*#----------------------------#.*   " ,
   "XXX*.#----------------------------#*.   " ,
   "XXX.*.#------#------------#------#*.*   " ,
   "XXX*.*#-------#----------#-------#.*.   " ,
   "XXX.*.#--------##------##--------#*.*   " ,
   "XXX*.*.#---------######---------#*.*.   " ,
   "XXX.*.*#------------------------#.*.*   " ,
   "XXX*.*.*#----------------------#.*.*.   " ,
   "XXX.*.*.*#--------------------#.*.*.*   " ,
   "XXX*.*.*.*#------------------#.*.*.*.   " ,
   "XXX.*.*.*.*##--------------##.*.*.*.*   " ,
   "XXX*.*.*.*.*.###--------###*.*.*.*.*.   " ,
   "XXX.*.*.*.*.*.*.########*.*.*.*.*.*.*   " ,
   "XXX*.*.*.*.*.*.*.*.*.*.*.*.*.*.*.*.*.   " ,
   "XXX.*.*.*.*.*.*.*.*.*.*.*.*.*.*.*.*.*   " ,
   "XXX                                     " ,
   "XX                                      " ,
   "X                                       " ,
} ;
