/* XPM */

static char *xpm_square_4[] =
{
   /* width height ncolors chars_per_pixel */
   "20 20 2 1" ,
   /* colors */
   ". c gray70 m white" ,
   "- c navy   m black" ,
   /* pixels */
   "...................." ,
   "...................." ,
   ".......---.----....." ,
   "......----.----....." ,
   "......----.----....." ,
   ".....----..----....." ,
   ".....----..----....." ,
   "....----...----....." ,
   "....----...----....." ,
   "....------------...." ,
   "....------------...." ,
   "....------------...." ,
   "...........----....." ,
   "...........----....." ,
   "...........----....." ,
   "...........----....." ,
   "...........----....." ,
   "...........----....." ,
   "...................." ,
   "...................." ,
} ;
