/* XPM */

static char *xpm_square_7[] =
{
   /* width height ncolors chars_per_pixel */
   "20 20 2 1" ,
   /* colors */
   ". c gray70 m white" ,
   "- c sienna m white" ,
   /* pixels */
   "...................." ,
   "...................." ,
   "....------------...." ,
   "....------------...." ,
   "....------------...." ,
   "............---....." ,
   "............---....." ,
   "...........---......" ,
   "...........---......" ,
   "..........---......." ,
   "..........---......." ,
   ".........---........" ,
   ".........---........" ,
   "........---........." ,
   "........---........." ,
   ".......---.........." ,
   ".......---.........." ,
   ".......---.........." ,
   "...................." ,
   "...................." ,
} ;
